…
```r
wisconsin_spread <- wisconsin %>%
  filter(cand %in% c("Donald Trump", "Hillary Clinton", "Gary Johnson", "Jill Stein")) %>%
  select(fips, cand, pct) %>%
  mutate(pct = pct * 100,
         region = as.numeric(fips)) %>%
  spread(cand, pct) %>%
  select(-fips)

wisconsin_spread
```

```r
## # A tibble: 72 × 5
##    region `Donald Trump` `Gary Johnson` `Hillary Clinton` `Jill Stein`
## *   <dbl>          <dbl>          <dbl>             <dbl>        <dbl>
## 1   55001       59.19660       2.048085          37.39982    0.7915306
## 2   55003       43.25006       2.296240          52.18269    1.7663386
## 3   55005       60.38465       3.224660          35.00489    0.7506440
## 4   55007       43.46223       1.959751          52.18628    1.9492150
## 5   55009       52.70085       3.907543          41.85040    1.0753194
## 6   55011       58.50311       3.149834          36.56986    1.0692097
## 7   55013       62.07134       2.626448          33.81122    0.7684367
## 8   55015       58.06122       3.980476          36.45238    0.7718794
## 9   55017       56.91589       3.835277          37.73315    0.8388675
## 10  55019       63.81016       3.291999          31.18541    0.7897845
## # ... with 62 more rows
```
…
