Animate all the things:
…
- Data is split into a list of `data.frame`s
- Each `data.frame` is a frame in the animation

.codeScroll25[

```r
datalist <- split(gapminder, gapminder$year)
datalist
```

```
## $`1952`
## # A tibble: 142 x 6
##    country     continent  year lifeExp      pop gdpPercap
##    <fct>       <fct>     <int>   <dbl>    <int>     <dbl>
##  1 Afghanistan Asia       1952    28.8  8425333      779.
##  2 Albania     Europe     1952    55.2  1282697     1601.
##  3 Algeria     Africa     1952    43.1  9279525     2449.
##  4 Angola      Africa     1952    30.0  4232095     3521.
##  5 Argentina   Americas   1952    62.5 17876956     5911.
##  6 Australia   Oceania    1952    69.1  8691212    10040.
##  7 Austria     Europe     1952    66.8  6927772     6137.
##  8 Bahrain     Asia       1952    50.9   120447     9867.
##  9 Bangladesh  Asia       1952    37.5 46886859      684.
## 10 Belgium     Europe     1952    68    8730405     8343.
## # ... with 132 more rows
## 
## $`1957`
## # A tibble: 142 x 6
##    country     continent  year lifeExp      pop gdpPercap
##    <fct>       <fct>     <int>   <dbl>    <int>     <dbl>
##  1 Afghanistan Asia       1957    30.3  9240934      821.
##  2 Albania     Europe     1957    59.3  1476505     1942.
##  3 Algeria     Africa     1957    45.7 10270856     3014.
##  4 Angola      Africa     1957    32.0  4561361     3828.
##  5 Argentina   Americas   1957    64.4 19610538     6857.
##  6 Australia   Oceania    1957    70.3  9712569    10950.
##  7 Austria     Europe     1957    67.5  6965860     8843.
##  8 Bahrain     Asia       1957    53.8   138655    11636.
##  9 Bangladesh  Asia       1957    39.3 51365468      662.
## 10 Belgium     Europe     1957    69.2  8989111     9715.
## # ... with 132 more rows
## 
## $`1962`
## # A tibble: 142 x 6
##    country     continent  year lifeExp      pop gdpPercap
##    <fct>       <fct>     <int>   <dbl>    <int>     <dbl>
##  1 Afghanistan Asia       1962    32.0 10267083      853.
##  2 Albania     Europe     1962    64.8  1728137     2313.
##  3 Algeria     Africa     1962    48.3 11000948     2551.
##  4 Angola      Africa     1962    34    4826015     4269.
##  5 Argentina   Americas   1962    65.1 21283783     7133.
##  6 Australia   Oceania    1962    70.9 10794968    12217.
##  7 Austria     Europe     1962    69.5  7129864    10751.
##  8 Bahrain     Asia       1962    56.9   171863    12753.
##  9 Bangladesh  Asia       1962    41.2 56839289      686.
## 10 Belgium     Europe     1962    70.2  9218400    10991.
## # ... with 132 more rows
## 
## $`1967`
## # A tibble: 142 x 6
##    country     continent  year lifeExp      pop gdpPercap
##    <fct>       <fct>     <int>   <dbl>    <int>     <dbl>
##  1 Afghanistan Asia       1967    34.0 11537966      836.
##  2 Albania     Europe     1967    66.2  1984060     2760.
##  3 Algeria     Africa     1967    51.4 12760499     3247.
##  4 Angola      Africa     1967    36.0  5247469     5523.
##  5 Argentina   Americas   1967    65.6 22934225     8053.
##  6 Australia   Oceania    1967    71.1 11872264    14526.
##  7 Austria     Europe     1967    70.1  7376998    12835.
##  8 Bahrain     Asia       1967    59.9   202182    14805.
##  9 Bangladesh  Asia       1967    43.5 62821884      721.
## 10 Belgium     Europe     1967    70.9  9556500    13149.
## # ... with 132 more rows
## 
## $`1972`
## # A tibble: 142 x 6
##    country     continent  year lifeExp      pop gdpPercap
##    <fct>       <fct>     <int>   <dbl>    <int>     <dbl>
##  1 Afghanistan Asia       1972    36.1 13079460      740.
##  2 Albania     Europe     1972    67.7  2263554     3313.
##  3 Algeria     Africa     1972    54.5 14760787     4183.
##  4 Angola      Africa     1972    37.9  5894858     5473.
##  5 Argentina   Americas   1972    67.1 24779799     9443.
##  6 Australia   Oceania    1972    71.9 13177000    16789.
##  7 Austria     Europe     1972    70.6  7544201    16662.
##  8 Bahrain     Asia       1972    63.3   230800    18269.
##  9 Bangladesh  Asia       1972    45.3 70759295      630.
## 10 Belgium     Europe     1972    71.4  9709100    16672.
## # ... with 132 more rows
## 
## $`1977`
## # A tibble: 142 x 6
##    country     continent  year lifeExp      pop gdpPercap
##    <fct>       <fct>     <int>   <dbl>    <int>     <dbl>
##  1 Afghanistan Asia       1977    38.4 14880372      786.
##  2 Albania     Europe     1977    68.9  2509048     3533.
##  3 Algeria     Africa     1977    58.0 17152804     4910.
##  4 Angola      Africa     1977    39.5  6162675     3009.
##  5 Argentina   Americas   1977    68.5 26983828    10079.
##  6 Australia   Oceania    1977    73.5 14074100    18334.
##  7 Austria     Europe     1977    72.2  7568430    19749.
##  8 Bahrain     Asia       1977    65.6   297410    19340.
##  9 Bangladesh  Asia       1977    46.9 80428306      660.
## 10 Belgium     Europe     1977    72.8  9821800    19118.
## # ... with 132 more rows
## 
## $`1982`
## # A tibble: 142 x 6
##    country     continent  year lifeExp      pop gdpPercap
##    <fct>       <fct>     <int>   <dbl>    <int>     <dbl>
##  1 Afghanistan Asia       1982    39.9 12881816      978.
##  2 Albania     Europe     1982    70.4  2780097     3631.
##  3 Algeria     Africa     1982    61.4 20033753     5745.
##  4 Angola      Africa     1982    39.9  7016384     2757.
##  5 Argentina   Americas   1982    69.9 29341374     8998.
##  6 Australia   Oceania    1982    74.7 15184200    19477.
##  7 Austria     Europe     1982    73.2  7574613    21597.
##  8 Bahrain     Asia       1982    69.1   377967    19211.
##  9 Bangladesh  Asia       1982    50.0 93074406      677.
## 10 Belgium     Europe     1982    73.9  9856303    20980.
## # ... with 132 more rows
## 
## $`1987`
## # A tibble: 142 x 6
##    country     continent  year lifeExp       pop gdpPercap
##    <fct>       <fct>     <int>   <dbl>     <int>     <dbl>
##  1 Afghanistan Asia       1987    40.8  13867957      852.
##  2 Albania     Europe     1987    72     3075321     3739.
##  3 Algeria     Africa     1987    65.8  23254956     5681.
##  4 Angola      Africa     1987    39.9   7874230     2430.
##  5 Argentina   Americas   1987    70.8  31620918     9140.
##  6 Australia   Oceania    1987    76.3  16257249    21889.
##  7 Austria     Europe     1987    74.9   7578903    23688.
##  8 Bahrain     Asia       1987    70.8    454612    18524.
##  9 Bangladesh  Asia       1987    52.8 103764241      752.
## 10 Belgium     Europe     1987    75.4   9870200    22526.
## # ... with 132 more rows
## 
## $`1992`
## # A tibble: 142 x 6
##    country     continent  year lifeExp       pop gdpPercap
##    <fct>       <fct>     <int>   <dbl>     <int>     <dbl>
##  1 Afghanistan Asia       1992    41.7  16317921      649.
##  2 Albania     Europe     1992    71.6   3326498     2497.
##  3 Algeria     Africa     1992    67.7  26298373     5023.
##  4 Angola      Africa     1992    40.6   8735988     2628.
##  5 Argentina   Americas   1992    71.9  33958947     9308.
##  6 Australia   Oceania    1992    77.6  17481977    23425.
##  7 Austria     Europe     1992    76.0   7914969    27042.
##  8 Bahrain     Asia       1992    72.6    529491    19036.
##  9 Bangladesh  Asia       1992    56.0 113704579      838.
## 10 Belgium     Europe     1992    76.5  10045622    25576.
## # ... with 132 more rows
## 
## $`1997`
## # A tibble: 142 x 6
##    country     continent  year lifeExp       pop gdpPercap
##    <fct>       <fct>     <int>   <dbl>     <int>     <dbl>
##  1 Afghanistan Asia       1997    41.8  22227415      635.
##  2 Albania     Europe     1997    73.0   3428038     3193.
##  3 Algeria     Africa     1997    69.2  29072015     4797.
##  4 Angola      Africa     1997    41.0   9875024     2277.
##  5 Argentina   Americas   1997    73.3  36203463    10967.
##  6 Australia   Oceania    1997    78.8  18565243    26998.
##  7 Austria     Europe     1997    77.5   8069876    29096.
##  8 Bahrain     Asia       1997    73.9    598561    20292.
##  9 Bangladesh  Asia       1997    59.4 123315288      973.
## 10 Belgium     Europe     1997    77.5  10199787    27561.
## # ... with 132 more rows
## 
## $`2002`
## # A tibble: 142 x 6
##    country     continent  year lifeExp       pop gdpPercap
##    <fct>       <fct>     <int>   <dbl>     <int>     <dbl>
##  1 Afghanistan Asia       2002    42.1  25268405      727.
##  2 Albania     Europe     2002    75.7   3508512     4604.
##  3 Algeria     Africa     2002    71.0  31287142     5288.
##  4 Angola      Africa     2002    41.0  10866106     2773.
##  5 Argentina   Americas   2002    74.3  38331121     8798.
##  6 Australia   Oceania    2002    80.4  19546792    30688.
##  7 Austria     Europe     2002    79.0   8148312    32418.
##  8 Bahrain     Asia       2002    74.8    656397    23404.
##  9 Bangladesh  Asia       2002    62.0 135656790     1136.
## 10 Belgium     Europe     2002    78.3  10311970    30486.
## # ... with 132 more rows
## 
## $`2007`
## # A tibble: 142 x 6
##    country     continent  year lifeExp       pop gdpPercap
##    <fct>       <fct>     <int>   <dbl>     <int>     <dbl>
##  1 Afghanistan Asia       2007    43.8  31889923      975.
##  2 Albania     Europe     2007    76.4   3600523     5937.
##  3 Algeria     Africa     2007    72.3  33333216     6223.
##  4 Angola      Africa     2007    42.7  12420476     4797.
##  5 Argentina   Americas   2007    75.3  40301927    12779.
##  6 Australia   Oceania    2007    81.2  20434176    34435.
##  7 Austria     Europe     2007    79.8   8199783    36126.
##  8 Bahrain     Asia       2007    75.6    708573    29796.
##  9 Bangladesh  Asia       2007    64.1 150448339     1391.
## 10 Belgium     Europe     2007    79.4  10392226    33693.
## # ... with 132 more rows
```
…
